…
indexing referendum-19460602.txt [====================================================] 2.15GB/s, eta:  0s                                                                                                          Running: C:/Users/franc/OneDrive/Immagini/Documenti/Gustav_Line/war-and-institutional-change-gustav-line/scripts/03_import_gis_distance_gustav.R 
Running: C:/Users/franc/OneDrive/Immagini/Documenti/Gustav_Line/war-and-institutional-change-gustav-line/scripts/04_import_comuni_2001_boundaries.R 
Driver: GPKG 
Available layers:
   layer_name geometry_type features fields              crs_name
1 comuni_2001 Multi Polygon     8101     13 WGS 84 / UTM zone 32N
Running: C:/Users/franc/OneDrive/Immagini/Documenti/Gustav_Line/war-and-institutional-change-gustav-line/scripts/05_import_gustav_line.R 
Driver: GPKG 
Available layers:
   layer_name geometry_type features fields              crs_name
1 gustav_line   Line String        1      3 WGS 84 / UTM zone 32N
Running: C:/Users/franc/OneDrive/Immagini/Documenti/Gustav_Line/war-and-institutional-change-gustav-line/scripts/06_select_fontana_et_al_data.R 
Running: C:/Users/franc/OneDrive/Immagini/Documenti/Gustav_Line/war-and-institutional-change-gustav-line/scripts/07_select_gagliarducci_et_al_data.R 
Running: C:/Users/franc/OneDrive/Immagini/Documenti/Gustav_Line/war-and-institutional-change-gustav-line/scripts/08_select_referendum_1946_data.R 
# A tibble: 831 × 6
   cod_istat103 name                   province103 region103 comune_key             provincia_key
          <dbl> <chr>                  <chr>       <chr>     <chr>                  <chr>        
 1         1017 BALDISSERO CANAVESE    TORINO      PIEMONTE  BALDISSERO CANAVESE    TORINO       
 2         1029 BORGIALLO              TORINO      PIEMONTE  BORGIALLO              TORINO       
 3         1042 BUROLO                 TORINO      PIEMONTE  BUROLO                 TORINO       
 4         1052 CANISCHIO              TORINO      PIEMONTE  CANISCHIO              TORINO       
 5         1053 CANTALUPA              TORINO      PIEMONTE  CANTALUPA              TORINO       
 6         1068 CASTIGLIONE TORINESE   TORINO      PIEMONTE  CASTIGLIONE TORINESE   TORINO       
 7         1069 CAVAGNOLO              TORINO      PIEMONTE  CAVAGNOLO              TORINO       
 8         1079 CHIESANUOVA            TORINO      PIEMONTE  CHIESANUOVA            TORINO       
 9         1083 CICONIO                TORINO      PIEMONTE  CICONIO                TORINO       
10         1091 COLLERETTO CASTELNUOVO TORINO      PIEMONTE  COLLERETTO CASTELNUOVO TORINO       
11         1092 COLLERETTO GIACOSA     TORINO      PIEMONTE  COLLERETTO GIACOSA     TORINO       
12         1095 COSSANO CANAVESE       TORINO      PIEMONTE  COSSANO CANAVESE       TORINO       
13         1101 FAVRIA                 TORINO      PIEMONTE  FAVRIA                 TORINO       
14         1109 FRONT                  TORINO      PIEMONTE  FRONT                  TORINO       
15         1122 INVERSO PINASCA        TORINO      PIEMONTE  INVERSO PINASCA        TORINO       
16         1123 ISOLABELLA             TORINO      PIEMONTE  ISOLABELLA             TORINO       
17         1126 LA CASSA               TORINO      PIEMONTE  LA CASSA               TORINO       
18         1136 LOMBRIASCO             TORINO      PIEMONTE  LOMBRIASCO             TORINO       
19         1137 LORANZE'               TORINO      PIEMONTE  LORANZE                TORINO       
20         1140 LUSERNETTA             TORINO      PIEMONTE  LUSERNETTA             TORINO       
21         1151 MEUGLIANO              TORINO      PIEMONTE  MEUGLIANO              TORINO       
22         1153 MOMBELLO DI TORINO     TORINO      PIEMONTE  MOMBELLO DI TORINO     TORINO       
23         1162 MONTEU DA PO           TORINO      PIEMONTE  MONTEU DA PO           TORINO       
24         1167 NOMAGLIO               TORINO      PIEMONTE  NOMAGLIO               TORINO       
25         1170 OGLIANICO              TORINO      PIEMONTE  OGLIANICO              TORINO       
26         1174 OSASIO                 TORINO      PIEMONTE  OSASIO                 TORINO       
27         1177 PALAZZO CANAVESE       TORINO      PIEMONTE  PALAZZO CANAVESE       TORINO       
28         1179 PARELLA                TORINO      PIEMONTE  PARELLA                TORINO       
29         1182 PECCO                  TORINO      PIEMONTE  PECCO                  TORINO       
30         1185 PEROSA CANAVESE        TORINO      PIEMONTE  PEROSA CANAVESE        TORINO       
31         1187 PERTUSIO               TORINO      PIEMONTE  PERTUSIO               TORINO       
32         1198 POMARETTO              TORINO      PIEMONTE  POMARETTO              TORINO       
33         1205 PRAROSTINO             TORINO      PIEMONTE  PRAROSTINO             TORINO       
34         1206 PRASCORSANO            TORINO      PIEMONTE  PRASCORSANO            TORINO       
35         1208 QUAGLIUZZO             TORINO      PIEMONTE  QUAGLIUZZO             TORINO       
36         1218 RIVAROSSA              TORINO      PIEMONTE  RIVAROSSA              TORINO       
37         1222 ROLETTO                TORINO      PIEMONTE  ROLETTO                TORINO       
38         1223 ROMANO CANAVESE        TORINO      PIEMONTE  ROMANO CANAVESE        TORINO       
39         1226 RORA'                  TORINO      PIEMONTE  RORA                   TORINO       
40         1227 ROURE                  TORINO      PIEMONTE  ROURE                  TORINO       
41         1234 SALZA DI PINEROLO      TORINO      PIEMONTE  SALZA DI PINEROLO      TORINO       
42         1237 SAN CARLO CANAVESE     TORINO      PIEMONTE  SAN CARLO CANAVESE     TORINO       
43         1238 SAN COLOMBANO BELMONTE TORINO      PIEMONTE  SAN COLOMBANO BELMONTE TORINO       
44         1241 SANGANO                TORINO      PIEMONTE  SANGANO                TORINO       
45         1252 SAN RAFFAELE CIMENA    TORINO      PIEMONTE  SAN RAFFAELE CIMENA    TORINO       
46         1258 SAUZE DI CESANA        TORINO      PIEMONTE  SAUZE DI CESANA        TORINO       
47         1259 SAUZE D'OULX           TORINO      PIEMONTE  SAUZE DOULX            TORINO       
48         1261 SCARMAGNO              TORINO      PIEMONTE  SCARMAGNO              TORINO       
49         1264 SETTIMO ROTTARO        TORINO      PIEMONTE  SETTIMO ROTTARO        TORINO       
50         1266 SETTIMO VITTONE        TORINO      PIEMONTE  SETTIMO VITTONE        TORINO       
# ℹ 781 more rows
# ℹ Use `print(n = ...)` to see more rows
…
